[
  {
    "name": "campaign",
    "mode": "",
    "type": "STRING",
    "description": null,
    "fields": []
  },
  {
    "name": "channel",
    "mode": "",
    "type": "STRING",
    "description": null,
    "fields": []
  },
  {
    "name": "medium",
    "mode": "",
    "type": "STRING",
    "description": null,
    "fields": []
  },
  {
    "name": "ad_content",
    "mode": "",
    "type": "STRING",
    "description": null,
    "fields": []
  },
  {
    "name": "ad_group",
    "mode": "",
    "type": "STRING",
    "description": null,
    "fields": []
  },
  {
    "name": "total_installs",
    "mode": "",
    "type": "INTEGER",
    "description": null,
    "fields": []
  },
  {
    "name": "total_cost",
    "mode": "",
    "type": "FLOAT",
    "description": null,
    "fields": []
  },
  {
    "name": "category",
    "mode": "",
    "type": "STRING",
    "description": null,
    "fields": []
  },
  {
    "name": "order_revenue",
    "mode": "",
    "type": "FLOAT",
    "description": null,
    "fields": []
  },
  {
    "name": "user_id",
    "mode": "",
    "type": "STRING",
    "description": null,
    "fields": []
  }
]